Chapter 3 Gene Set Databases | Gene Set Enrichment Analysis with R and Bioconductor
…
E.g., we want to extract genesets in C2 category and CP:KEGG sub-category:

gene_sets = msigdbr(category = "C2", subcategory = "CP:KEGG")
gene_sets
# # A tibble: 16,283 × 15
#    gs_cat gs_sub…¹ gs_name gene_…² entre…³ ensem…⁴ human…⁵ human…⁶ human…⁷ gs_id
#    <chr>  <chr>    <chr>   <chr>     <int> <chr>   <chr>     <int> <chr>   <chr>
#  1 C2     CP:KEGG  KEGG_A… ABCA1        19 ENSG00… ABCA1        19 ENSG00… M119…
#  2 C2     CP:KEGG  KEGG_A… ABCA10    10349 ENSG00… ABCA10    10349 ENSG00… M119…
#  3 C2     CP:KEGG  KEGG_A… ABCA12    26154 ENSG00… ABCA12    26154 ENSG00… M119…
#  4 C2     CP:KEGG  KEGG_A… ABCA13   154664 ENSG00… ABCA13   154664 ENSG00… M119…
#  5 C2     CP:KEGG  KEGG_A… ABCA2        20 ENSG00… ABCA2        20 ENSG00… M119…
#  6 C2     CP:KEGG  KEGG_A… ABCA3        21 ENSG00… ABCA3        21 ENSG00… M119…
#  7 C2     CP:KEGG  KEGG_A… ABCA4        24 ENSG00… ABCA4        24 ENSG00… M119…
#  8 C2     CP:KEGG  KEGG_A… ABCA5     23461 ENSG00… ABCA5     23461 ENSG00… M119…
#  9 C2     CP:KEGG  KEGG_A… ABCA6     23460 ENSG00… ABCA6     23460 ENSG00… M119…
# 10 C2     CP:KEGG  KEGG_A… ABCA7     10347 ENSG00… ABCA7     10347 ENSG00… M119…
# # … with 16,273 more rows, 5 more variables: gs_pmid <chr>, gs_geoid <chr>,
# #   gs_exact_source <chr>, gs_url <chr>, gs_description <chr>, and abbreviated
# #   variable names ¹​gs_subcat, ²​gene_symbol, ³​entrez_gene, ⁴​ensembl_gene,
# #   ⁵​human_gene_symbol, ⁶​human_entrez_gene, ⁷​human_ensembl_gene
# # ℹ Use `print(n = ...)` to see more rows, and `colnames()` to see all variable names
…
